\relax 
\providecommand\hyper@newdestlabel[2]{}
\providecommand\HyperFirstAtBeginDocument{\AtBeginDocument}
\HyperFirstAtBeginDocument{\ifx\hyper@anchor\@undefined
\global\let\oldcontentsline\contentsline
\gdef\contentsline#1#2#3#4{\oldcontentsline{#1}{#2}{#3}}
\global\let\oldnewlabel\newlabel
\gdef\newlabel#1#2{\newlabelxx{#1}#2}
\gdef\newlabelxx#1#2#3#4#5#6{\oldnewlabel{#1}{{#2}{#3}}}
\AtEndDocument{\ifx\hyper@anchor\@undefined
\let\contentsline\oldcontentsline
\let\newlabel\oldnewlabel
\fi}
\fi}
\global\let\hyper@last\relax 
\gdef\HyperFirstAtBeginDocument#1{#1}
\providecommand\HyField@AuxAddToFields[1]{}
\providecommand\HyField@AuxAddToCoFields[2]{}
\@writefile{toc}{\contentsline {section}{\numberline {1}Directory Structure}{1}{section.1}}
\@writefile{lol}{\contentsline {lstlisting}{directory.txt}{1}{lstlisting.-1}}
\@writefile{toc}{\contentsline {section}{\numberline {2}Problem 1}{2}{section.2}}
\@writefile{toc}{\contentsline {subsection}{\numberline {2.1}Part 1}{2}{subsection.2.1}}
\@writefile{lol}{\contentsline {lstlisting}{1/1a.cpp}{2}{lstlisting.-2}}
\@writefile{toc}{\contentsline {subsection}{\numberline {2.2}Part 2}{3}{subsection.2.2}}
\@writefile{lol}{\contentsline {lstlisting}{1/1b.cpp}{3}{lstlisting.-3}}
\@writefile{toc}{\contentsline {section}{\numberline {3}Problem 2}{5}{section.3}}
\@writefile{lol}{\contentsline {lstlisting}{2/2.cpp}{5}{lstlisting.-4}}
\@writefile{toc}{\contentsline {section}{\numberline {4}Problem 3}{6}{section.4}}
\@writefile{lol}{\contentsline {lstlisting}{3/3.cpp}{7}{lstlisting.-5}}
\@writefile{toc}{\contentsline {section}{\numberline {5}Problem 4}{9}{section.5}}
\@writefile{lol}{\contentsline {lstlisting}{4/4.cpp}{9}{lstlisting.-6}}
\@writefile{toc}{\contentsline {section}{\numberline {6}Problem 5}{12}{section.6}}
\@writefile{lol}{\contentsline {lstlisting}{5/5.cpp}{12}{lstlisting.-7}}
